letrec {
  t0 = \x0 ->
       letrec {
         x69 = x0;
         t1 = \x1 ->
              letrec {
                x32 = x1;
                t3 = \x3 ->
                     letrec {
                       x34 = x3;
                       t7 = \x7 ->
                            letrec {
                              x35 = x7;
                              t11 = \x11 ->
                                   letrec {
                                     x55 = x11;
                                     t14 = x33 x55;
                                     x38 = t14;
                                     t19 = x31 x35;
                                     x36 = t19;
                                     t20 = x36 x38;
                                     x56 = t20;
                                     t23 = x32 x35;
                                     x37 = t23;
                                     t24 = x37 x56;
                                     x39 = t24;
                                     t25 = x39 x38;
                                     x57 = t25
                                   } in x57;
                              x53 = t11
                            } in x53;
                       x51 = t7;
                       t28 = x34 x51;
                       x52 = t28
                     } in x52;
                x33 = t3;
                x54 = t3
              } in x54;
         x40 = t1;
         t2 = \x2 ->
              letrec {
                x41 = x2;
                t4 = \x4 ->
                     letrec {
                       x43 = x4;
                       t8 = \x8 ->
                            letrec {
                              x62 = x8;
                              t12 = \x12 ->
                                   letrec {
                                     x60 = x12;
                                     t15 = x43 x60;
                                     x44 = t15;
                                     t16 = x44 x62;
                                     x63 = t16
                                   } in x63;
                              x59 = t12
                            } in x59;
                       x61 = t8
                     } in x61;
                x64 = t4;
                t5 = \x5 ->
                     letrec { x67 = x5; t9 = \x9 -> x67; x68 = t9 } in x68;
                x65 = t5;
                t21 = x41 x64;
                x45 = t21;
                t22 = x45 x65;
                x66 = t22
              } in x66;
         x58 = t2;
         t6 = \x6 ->
              letrec {
                x46 = x6;
                t10 = \x10 ->
                     letrec {
                       x49 = x10;
                       t13 = \x13 ->
                            letrec {
                              x29 = x13;
                              t17 = x29 x46;
                              x30 = t17;
                              t18 = x30 x49;
                              x50 = t18
                            } in x50;
                       x47 = t13
                     } in x47;
                x48 = t10
              } in x48;
         x31 = t6;
         t26 = x40 x58;
         x42 = t26;
         t27 = x42 x69;
         x70 = t27
       } in x70
} in t0

