letrec {
  t0 = \x0 ->
       letrec {
         x209 = x0;
         t1 = \x1 -> letrec { x202 = x1 } in x202;
         x201 = t1;
         t2 = \x2 ->
              letrec {
                x179 = x2;
                t5 = \x5 ->
                     letrec {
                       x118 = x5;
                       t9 = \x9 ->
                            letrec { t10 = x118 x179; x180 = t10 } in x180;
                       x178 = t9
                     } in x178;
                x177 = t5
              } in x177;
         x121 = t2;
         t3 = \x3 ->
              letrec {
                t6 = \x6 -> letrec { x188 = x6 } in x188;
                x187 = t6
              } in x187;
         x132 = t3;
         x128 = t3;
         t4 = \x4 ->
              letrec {
                x139 = x4;
                t7 = x139 x201;
                x142 = t7;
                t8 = x142 x132;
                x208 = t8
              } in x208;
         x130 = t4;
         t11 = \x11 ->
              letrec {
                x88 = x11;
                t12 = \x12 ->
                     letrec {
                       x89 = x12;
                       t13 = \x13 ->
                            letrec {
                              x145 = x13;
                              t14 = x88 x89;
                              x90 = t14;
                              t15 = x90 x145;
                              x146 = t15;
                              t16 = x89 x146;
                              x147 = t16
                            } in x147;
                       x144 = t13
                     } in x144;
                x143 = t12
              } in x143;
         x91 = t11;
         t17 = \x17 ->
              letrec {
                t19 = \x19 -> letrec { x158 = x19 } in x158;
                x159 = t19
              } in x159;
         x92 = t17;
         t18 = \x18 ->
              letrec {
                x136 = x18;
                t20 = \x20 ->
                     letrec {
                       x134 = x20;
                       t21 = x136 x121;
                       x140 = t21;
                       t22 = x140 x128;
                       x203 = t22;
                       t24 = x134 x130;
                       x141 = t24;
                       t25 = x141 x203;
                       x204 = t25;
                       t27 = x126 x204;
                       x205 = t27
                     } in x205;
                x199 = t20
              } in x199;
         x113 = t18;
         t23 = x91 x92;
         x148 = t23;
         t26 = x91 x148;
         x93 = t26;
         x149 = t26;
         t28 = x91 x149;
         x94 = t28;
         x150 = t28;
         t29 = x91 x150;
         x151 = t29;
         t30 = \x30 ->
              letrec {
                x195 = x30;
                t32 = \x32 ->
                     letrec {
                       x117 = x32;
                       t33 = \x33 ->
                            letrec {
                              x189 = x33;
                              t35 = \x35 ->
                                   letrec {
                                     x182 = x35;
                                     t37 = x119 x182;
                                     x183 = t37;
                                     t43 = x117 x183;
                                     x184 = t43
                                   } in x184;
                              x122 = t35;
                              t38 = \x38 ->
                                   letrec {
                                     x125 = x38;
                                     t41 = x125 x122;
                                     x127 = t41;
                                     t42 = x127 x189;
                                     x190 = t42
                                   } in x190;
                              x119 = t38;
                              t39 = x119 x195;
                              x196 = t39
                            } in x196;
                       x186 = t33
                     } in x186;
                x185 = t32
              } in x185;
         x126 = t30;
         t31 = x91 x151;
         x95 = t31;
         x152 = t31;
         t34 = x91 x152;
         x153 = t34;
         t36 = x91 x153;
         x154 = t36;
         t40 = x91 x154;
         x155 = t40;
         t44 = x91 x155;
         x156 = t44;
         t45 = x91 x156;
         x157 = t45;
         t46 = x91 x157;
         x96 = t46;
         t47 = \x47 ->
              letrec { x193 = x47; t49 = \x49 -> x193; x194 = t49 } in x194;
         x135 = t47;
         t48 = \x48 ->
              letrec {
                t50 = \x50 -> letrec { x206 = x50 } in x206;
                x207 = t50
              } in x207;
         x137 = t48;
         t51 = \x51 ->
              letrec {
                x162 = x51;
                t53 = x98 x162;
                x163 = t53;
                t55 = x94 x163;
                x164 = t55
              } in x164;
         x160 = t51;
         t52 = x95 x93;
         x98 = t52;
         x97 = t52;
         t54 = x93 x96;
         x167 = t54;
         t56 = x91 x167;
         x107 = t56;
         t57 = \x57 ->
              letrec {
                x191 = x57;
                t58 = \x58 ->
                     letrec {
                       x192 = x58;
                       t59 = x135 x137;
                       x197 = t59;
                       t60 = x113 x191;
                       x129 = t60;
                       t61 = x129 x192;
                       x131 = t61;
                       t62 = x131 x197;
                       x138 = t62;
                       t63 = x138 x135;
                       x200 = t63
                     } in x200;
                x198 = t58
              } in x198;
         x99 = t57;
         t64 = x91 x160;
         x161 = t64;
         t65 = \x65 ->
              letrec {
                x165 = x65;
                x168 = x65;
                x175 = x65;
                x181 = x65;
                t66 = x99 x161;
                x100 = t66;
                t67 = x100 x165;
                x102 = t67;
                t68 = x99 x168;
                x109 = t68;
                t69 = x109 x107;
                x104 = t69;
                t70 = x113 x181;
                x120 = t70;
                t71 = x120 x97;
                x115 = t71;
                t72 = x102 x104;
                x105 = t72;
                t73 = x105 x102;
                x108 = t73;
                t74 = x108 x115;
                x116 = t74;
                t75 = x116 x175;
                x176 = t75
              } in x176;
         x124 = t65;
         t76 = \x76 ->
              letrec {
                x110 = x76;
                t77 = \x77 ->
                     letrec {
                       x169 = x77;
                       t80 = \x80 ->
                            letrec {
                              x172 = x80;
                              t81 = x110 x169;
                              x112 = t81;
                              t82 = x106 x172;
                              x173 = t82;
                              t85 = \x85 ->
                                   letrec {
                                     x111 = x85;
                                     t86 = x111 x112;
                                     x114 = t86;
                                     t87 = x114 x173;
                                     x174 = t87
                                   } in x174;
                              x170 = t85
                            } in x170;
                       x171 = t80
                     } in x171;
                x103 = t77;
                t83 = \x83 ->
                     letrec { x101 = x83; t84 = x101 x103; x166 = t84 } in x166;
                x106 = t83
              } in x106;
         x123 = t76;
         t78 = x123 x124;
         x133 = t78;
         t79 = x133 x209;
         x210 = t79
       } in x210
} in t0

