\x0 ->
   (letrec {
      t74 = let {
          t1 = \x1 x2 x7 -> x2 (x1 x2 x7)
        } in let {
          t42 = \x42 ->
               t1 (t1 (t1 (t1 (t1 (\x30 x31 -> x31))))) (t1 (t1 (t1 (\x30 x31 ->
                      x31
                   )
                  )
                 ) (t1 (t1 (t1 (\x30 x31 -> x31))) x42)
                )
        } in \x74 x75 ->
           x74 (\x77 x78 ->
               (\x39 ->
                   (\x26 -> x26 ((\x4 x9 -> x4) (\x5 x10 -> x10)) (\x4 x9 -> x4)
                    ) (t1 (t1 (\x30 x31 -> x31)) t1 t42 (\x32 ->
                        x32 (\x29 -> x29) (\x33 x36 -> x36)
                     ) (x39 (\x3 x8 x12 -> x8 x3) (\x33 x36 -> x36))
                    ) (\x33 x36 -> x36) ((\x26 ->
                        x26 ((\x4 x9 -> x4) (\x5 x10 -> x10)) (\x4 x9 -> x4)
                     ) (t1 (t1 (t1 (t1 (t1 (t1 (t1 (t1 (t1 (t1 (\x30 x31 -> x31)
                              )
                             )
                            )
                           )
                          )
                         )
                        )
                       )
                      ) (\x32 -> x32 (\x29 -> x29) (\x33 x36 -> x36)) (t1 (t1
                       (\x30 x31 -> x31)
                       ) t1 t42 (\x32 -> x32 (\x29 -> x29) (\x33 x36 -> x36))
                      (x39 (\x3 x8 x12 -> x8 x3) (\x33 x36 -> x36))
                      )
                     ) ((\x3 x8 x12 -> x8 x3) ((\x6 x11 x13 ->
                          (letrec {
                             t17 = \x17 -> x11 ((\x21 -> x21 t17 x13) x17)
                           } in \x21 -> x21 t17 x13
                           ) x6
                       ) ((\x32 -> x32 (\x29 -> x29) (\x33 x36 -> x36)) (t1 (t1
                         (\x30 x31 -> x31)
                         ) t1 t42 (\x32 -> x32 (\x29 -> x29) (\x33 x36 -> x36))
                        (x39 (\x3 x8 x12 -> x8 x3) (\x33 x36 -> x36))
                        )
                       )
                      )
                     ) (\x33 x36 -> x36)
                    )
                ) x77 (\x80 ->
                   t74 x78 (x80 (\x52 x55 x56 -> x55 (x52 x55 x56)) (\x82 ->
                        t1 (t1 (t1 (t1 (t1 (t1 (t1 (t1 (t1 (t1 (\x30 x31 -> x31)
                                 )
                                )
                               )
                              )
                             )
                            )
                           )
                          )
                         ) (x75 x82)
                     )
                    )
                ) x75
            )
    } in t74
    ) x0 (\x81 x83 -> x83)

