\x0 ->
   let {
     t1 = \x1 x2 x3 -> x2 (x1 x2 x3)
   } in (letrec {
      t60 = letrec {
          t55 = t1 (t1 (t1 (t1 (t1 (t1 (t1 (t1 (t1 (t1 (\x21 x23 -> x23)))))))))
             ) (\x28 x31 x34 -> (\x4 x5 x8 -> x8 x4 x5) x31 (x28 (t1 x31) x34))
            (\x46 x49 -> x49) (\x46 x49 -> x49) t55
        } in letrec {
          t22 = \x22 ->
               t1 (t1 (t1 (t1 (t1 (t1 (t1 (t1 (t1 (t1 (\x21 x23 -> x23))))))))))
               ((\x4 x5 x8 -> x8 x4 x5) x22) (t22 (t1 x22))
        } in \x60 ->
           (\x95 -> x95 ((\x82 x84 -> x82) (\x83 x85 -> x85)) (\x82 x84 -> x82))
           x60 (\x75 -> x75) (\x66 ->
               t60 ((\x27 x30 ->
                    (\x16 x17 -> x17 x16) (\x11 x14 -> x11) (x30 ((\x16 x17 ->
                          x17 x16
                       ) (\x12 x15 -> x15)
                      ) x27
                     )
                 ) (t22 (\x21 x23 -> x23)) x60
                ) ((\x4 x5 x8 -> x8 x4 x5) ((\x27 x30 ->
                     (\x16 x17 -> x17 x16) (\x11 x14 -> x11) (x30 ((\x16 x17 ->
                           x17 x16
                        ) (\x12 x15 -> x15)
                       ) x27
                      )
                  ) t55 x60 t1 (\x71 ->
                     t1 (t1 (t1 (\x21 x23 -> x23))) (t1 (t1 (\x21 x23 -> x23))
                      (t1 (t1 (\x21 x23 -> x23))) (t1 (t1 (\x21 x23 -> x23)))
                      x71
                      )
                  )
                 ) x66
                )
            )
    } in \x86 ->
       (\x95 -> x95 ((\x82 x84 -> x82) (\x83 x85 -> x85)) (\x82 x84 -> x82)) x86
       ((\x4 x5 x8 -> x8 x4 x5) (\x71 ->
            t1 (t1 (t1 (\x21 x23 -> x23))) (t1 (t1 (\x21 x23 -> x23)) (t1 (t1
               (\x21 x23 -> x23)
               )
              ) (t1 (t1 (\x21 x23 -> x23))) x71
             )
         )
        ) (t60 x86)
    ) x0 (letrec {
      t99 = (\x4 x5 x8 -> x8 x4 x5) (t1 (t1 (t1 (\x21 x23 -> x23))) (t1 (t1
           (\x21 x23 -> x23)
           )
          ) (t1 (t1 (\x21 x23 -> x23)))
         ) t99
    } in t99
    )

