letrec {
  t0 = \x0 ->
       letrec {
         x69 = x0;
         t1 = \x1 -> letrec { x64 = x1 } in x64;
         x63 = t1;
         t2 = \x2 ->
              letrec {
                x56 = x2;
                t5 = \x5 ->
                     letrec {
                       x34 = x5;
                       t9 = \x9 -> letrec { t10 = x34 x56; x57 = t10 } in x57;
                       x55 = t9
                     } in x55;
                x54 = t5
              } in x54;
         x35 = t2;
         t3 = \x3 ->
              letrec {
                t6 = \x6 -> letrec { x61 = x6 } in x61;
                x60 = t6
              } in x60;
         x39 = t3;
         x37 = t3;
         t4 = \x4 ->
              letrec {
                x42 = x4;
                t7 = x42 x63;
                x45 = t7;
                t8 = x45 x39;
                x68 = t8
              } in x68;
         x38 = t4;
         t11 = \x11 ->
              letrec {
                x58 = x11;
                t12 = \x12 ->
                     letrec {
                       x29 = x12;
                       t14 = \x14 ->
                            letrec {
                              x52 = x14;
                              t16 = \x16 ->
                                   letrec {
                                     x47 = x16;
                                     t19 = x30 x47;
                                     x48 = t19;
                                     t24 = x29 x48;
                                     x49 = t24
                                   } in x49;
                              x31 = t16;
                              t20 = \x20 ->
                                   letrec {
                                     x32 = x20;
                                     t22 = x32 x31;
                                     x33 = t22;
                                     t23 = x33 x52;
                                     x53 = t23
                                   } in x53;
                              x30 = t20;
                              t21 = x30 x58;
                              x59 = t21
                            } in x59;
                       x51 = t14
                     } in x51;
                x50 = t12
              } in x50;
         x36 = t11;
         t13 = \x13 ->
              letrec {
                x41 = x13;
                t15 = \x15 ->
                     letrec {
                       x40 = x15;
                       t17 = x41 x35;
                       x43 = t17;
                       t18 = x43 x37;
                       x65 = t18;
                       t25 = x40 x38;
                       x44 = t25;
                       t26 = x44 x65;
                       x66 = t26;
                       t27 = x36 x66;
                       x67 = t27
                     } in x67;
                x62 = t15
              } in x62;
         x46 = t13;
         t28 = x46 x69;
         x70 = t28
       } in x70
} in t0

